Generating Keeper profiles for review • Keeper
…
See the createConnectionDetails()
documentation for more information on connecting to your database
server.

Next, we can generate the concept sets:

conceptSets <- generateKeeperConceptSets(
  phenotype = "Type I Diabetes Mellitus (T1DM)",
  client = client,
  vocabConnectionDetails = connectionDetails,
  vocabDatabaseSchema = vocabDatabaseSchema
)
conceptSets

## # A tibble: 481 × 5
##    conceptId conceptName                      vocabularyId conceptSetName target
##        <int> <chr>                            <chr>        <chr>          <chr> 
##  1    201254 Type 1 diabetes mellitus         SNOMED       doi            Disea…
##  2    435216 Disorder due to type 1 diabetes… SNOMED       doi            Disea…
##  3    201826 Type 2 diabetes mellitus         SNOMED       alternativeDi… Disea…
##  4    195771 Secondary diabetes mellitus      SNOMED       alternativeDi… Disea…
##  5    195212 Hypercortisolism                 SNOMED       alternativeDi… Disea…
##  6    438476 Vasopressin resistance           SNOMED       alternativeDi… Disea…
##  7  40480068 Drug-induced hyperglycemia       SNOMED       alternativeDi… Disea…
##  8   4163735 Hemochromatosis                  SNOMED       alternativeDi… Disea…
##  9    193170 Renal glycosuria                 SNOMED       alternativeDi… Disea…
## 10  37016349 Hyperglycemia due to type 2 dia… SNOMED       alternativeDi… Disea…
## # ℹ 471 more rows
…
