Using Keeper with Large Language Models • Keeper
…
Workflow 1: Direct Cohort Review

In this first workflow, we will take an existing cohort, generate
Keeper profiles, and use an LLM to evaluate those specific cases. We
assume that Keeper has already been executed to produce the following
output:

keeper

## # A tibble: 2,234 × 8
##    generatedId startDay endDay conceptId conceptName category target   extraData
##          <dbl>    <dbl>  <dbl>     <dbl> <chr>       <chr>    <chr>    <chr>    
##  1          16        0      0        NA 67          age      Disease… NA       
##  2           8        0      0        NA 70          age      Disease… NA       
##  3           6        0      0        NA 72          age      Disease… NA       
##  4          14        0      0        NA 61          age      Disease… NA       
##  5          10        0      0        NA 68          age      Disease… NA       
##  6           5        0      0        NA 78          age      Disease… NA       
##  7           7        0      0        NA 70          age      Disease… NA       
##  8          15        0      0        NA 81          age      Disease… NA       
##  9           9        0      0        NA 79          age      Disease… NA       
## 10          13        0      0        NA 79          age      Disease… NA       
## # ℹ 2,224 more rows
…
